{
    "status": "ok",
    "programs": [
        [
            {
                "id": "54031",
                "title": "Kantang inawit ni Gerald Santos sa ASOP, ginawa niyang  inspirasyon sa kanyang upcoming concert",
                "program_id": "110",
                "program_title": "Ito ang Balita",
                "thumbnail": "http:\/\/img.youtube.com\/vi\/1d8XiCX-FuE\/0.jpg",
                "url": "http:\/\/www.untvweb.com\/videos\/kantang-inawit-ni-gerald-santos-sa-asop-ginawa-niyang-inspirasyon-sa-kanyang-upcoming-concert\/",
                "video_id": "1d8XiCX-FuE"
            },
            {
                "id": "40245",
                "title": "Successful UNTV Rescue Summit 2014",
                "program_id": "153",
                "program_title": "Q.U.A.T.",
                "thumbnail": "http:\/\/img.youtube.com\/vi\/KzdPbbwyofA\/0.jpg",
                "url": "http:\/\/www.untvweb.com\/videos\/successful-untv-rescue-summit-2014\/",
                "video_id": "KzdPbbwyofA"
            },
            {
                "id": "58622",
                "title": "PNPA Grand Alumni Homecoming",
                "program_id": "12647",
                "program_title": "Pulis @ Ur Serbis",
                "thumbnail": "http:\/\/img.youtube.com\/vi\/vLX1rsdOSOg\/0.jpg",
                "url": "http:\/\/www.untvweb.com\/videos\/pnpa-grand-alumni-homecoming\/",
                "video_id": "vLX1rsdOSOg"
            },
            {
                "id": "58765",
                "title": "Pres. Aquino, nag-inspeksyon sa mga pangunahing pantalan, paliparan at bus terminal",
                "program_id": "110",
                "program_title": "Ito ang Balita",
                "thumbnail": "http:\/\/img.youtube.com\/vi\/ogEsP-i8g64\/0.jpg",
                "url": "http:\/\/www.untvweb.com\/videos\/pres-aquino-nag-inspeksyon-sa-mga-pangunahing-pantalan-paliparan-at-bus-terminal\/",
                "video_id": "ogEsP-i8g64"
            },
            {
                "id": "67662",
                "title": "Customs Comm. Alberto Lina, sinampahan ng reklamong plunder at graft sa Ombudsman",
                "program_id": "110",
                "program_title": "Ito ang Balita",
                "thumbnail": "http:\/\/img.youtube.com\/vi\/zu2KP4QAegY\/0.jpg",
                "url": "http:\/\/www.untvweb.com\/videos\/customs-comm-alberto-lina-sinampahan-ng-reklamong-plunder-at-graft-sa-ombudsman\/",
                "video_id": "zu2KP4QAegY"
            },
            {
                "id": "68394",
                "title": "Safety and maritime accident prevention",
                "program_id": "125",
                "program_title": "Good Morning Kuya!",
                "thumbnail": "http:\/\/img.youtube.com\/vi\/Fo0RRgHrVJY\/0.jpg",
                "url": "http:\/\/www.untvweb.com\/videos\/safety-and-maritime-accident-prevention\/",
                "video_id": "Fo0RRgHrVJY"
            },
            {
                "id": "69744",
                "title": "Clinic ni Kuya gives free health services to 1,000 residents of Mandaluyong",
                "program_id": "125",
                "program_title": "Good Morning Kuya!",
                "thumbnail": "http:\/\/img.youtube.com\/vi\/uEfR2nyk8FU\/0.jpg",
                "url": "http:\/\/www.untvweb.com\/videos\/clinic-ni-kuya-gives-free-health-services-to-1000-residents-of-mandaluyong\/",
                "video_id": "uEfR2nyk8FU"
            },
            {
                "id": "71446",
                "title": "Can a sibling meddle in parents&#8217; property transactions?",
                "program_id": "125",
                "program_title": "Good Morning Kuya!",
                "thumbnail": "http:\/\/img.youtube.com\/vi\/SLO_39pMQYM\/0.jpg",
                "url": "http:\/\/www.untvweb.com\/videos\/can-a-sibling-meddle-in-parents-property-transactions\/",
                "video_id": "SLO_39pMQYM"
            },
            {
                "id": "45773",
                "title": "COMET e-jeepney to solve Metro Manila traffic (Part 2)",
                "program_id": "123",
                "program_title": "Get it Straight with Daniel Razon",
                "thumbnail": "http:\/\/img.youtube.com\/vi\/fvA6Wumnn2g\/0.jpg",
                "url": "http:\/\/www.untvweb.com\/videos\/comet-e-jeepney-to-solve-metro-manila-traffic-part-2\/",
                "video_id": "fvA6Wumnn2g"
            },
            {
                "id": "46163",
                "title": "New QCPD Director, P\/SSupt. Joel Pagdilao on Get It Straight (Part 2)",
                "program_id": "123",
                "program_title": "Get it Straight with Daniel Razon",
                "thumbnail": "http:\/\/img.youtube.com\/vi\/i4xjFEkCGCM\/0.jpg",
                "url": "http:\/\/www.untvweb.com\/videos\/new-qcpd-director-pssupt-joel-pagdilao-on-get-it-straight-part-2\/",
                "video_id": "i4xjFEkCGCM"
            }
        ],
        {
            "page": 1
        },
        {
            "total_count": "53202"
        },
        {
            "total_page": 5321
        }
    ]
}