{
    "status": "ok",
    "programs": [
        [
            {
                "id": "71735",
                "title": "OPM Balladeer Jeffrey Hidalgo and Acoustic Princess Sabrina, start recording for ASOP Year 4 album",
                "program_id": "52815",
                "program_title": "Why News",
                "thumbnail": "http:\/\/img.youtube.com\/vi\/P8cD8x4m5BY\/0.jpg",
                "url": "http:\/\/www.untvweb.com\/videos\/opm-balladeer-jeffrey-hidalgo-and-acoustic-princess-sabrina-start-recording-for-asop-year-4-album\/",
                "video_id": "P8cD8x4m5BY"
            },
            {
                "id": "67650",
                "title": "Pagreretiro ng AFP chief at PNP-OIC chief, mas naging makabuluhan dahil sa Songs For Heroes 2",
                "program_id": "110",
                "program_title": "Ito ang Balita",
                "thumbnail": "http:\/\/img.youtube.com\/vi\/TQgzX1uKoaM\/0.jpg",
                "url": "http:\/\/www.untvweb.com\/videos\/pagreretiro-ng-afp-chief-at-pnp-oic-chief-mas-naging-makabuluhan-dahil-sa-songs-for-heroes-2\/",
                "video_id": "TQgzX1uKoaM"
            },
            {
                "id": "53361",
                "title": "President\u2019s \u201cgo signal\u201d, not needed for the PNP-SAF operation \u2014 PNP OIC Chief Espina",
                "program_id": "52815",
                "program_title": "Why News",
                "thumbnail": "http:\/\/img.youtube.com\/vi\/msdT0D4-GIc\/0.jpg",
                "url": "http:\/\/www.untvweb.com\/videos\/presidents-go-signal-not-needed-for-the-pnp-saf-operation-pnp-oic-chief-espina\/",
                "video_id": "msdT0D4-GIc"
            },
            {
                "id": "59048",
                "title": "Pres. Aquino to attend 26th ASEAN Summit in Malaysia this April",
                "program_id": "52815",
                "program_title": "Why News",
                "thumbnail": "http:\/\/img.youtube.com\/vi\/XEBKre8BgnI\/0.jpg",
                "url": "http:\/\/www.untvweb.com\/videos\/pres-aquino-to-attend-26th-asean-summit-in-malaysia-this-april\/",
                "video_id": "XEBKre8BgnI"
            },
            {
                "id": "66205",
                "title": "A seven-year old&#8217;s choice in a custody battle",
                "program_id": "142",
                "program_title": "Law Profile",
                "thumbnail": "http:\/\/img.youtube.com\/vi\/7fwsrrqStqI\/0.jpg",
                "url": "http:\/\/www.untvweb.com\/videos\/a-seven-year-olds-choice-in-a-custody-battle\/",
                "video_id": "7fwsrrqStqI"
            },
            {
                "id": "65043",
                "title": "Fired for being pregnant then denied a separation pay",
                "program_id": "142",
                "program_title": "Law Profile",
                "thumbnail": "http:\/\/img.youtube.com\/vi\/mT2Kunx204E\/0.jpg",
                "url": "http:\/\/www.untvweb.com\/videos\/fired-for-being-pregnant-then-denied-a-separation-pay\/",
                "video_id": "mT2Kunx204E"
            },
            {
                "id": "70431",
                "title": "OPM Diva Karylle plans to enter own composition in ASOP Year 5",
                "program_id": "52815",
                "program_title": "Why News",
                "thumbnail": "http:\/\/img.youtube.com\/vi\/QVEIjY4U83A\/0.jpg",
                "url": "http:\/\/www.untvweb.com\/videos\/opm-diva-karylle-plans-to-enter-own-composition-in-asop-year-5\/",
                "video_id": "QVEIjY4U83A"
            },
            {
                "id": "57646",
                "title": "PBA Legends at UNTV Cup All Stars, maghaharap sa exhibition game sa UNTV Cup Season 3 finals",
                "program_id": "110",
                "program_title": "Ito ang Balita",
                "thumbnail": "http:\/\/img.youtube.com\/vi\/vRWMnLcn06w\/0.jpg",
                "url": "http:\/\/www.untvweb.com\/videos\/pba-legends-at-untv-cup-all-stars-maghaharap-sa-exibition-game-sa-season-3-finals\/",
                "video_id": "vRWMnLcn06w"
            },
            {
                "id": "58406",
                "title": "UNTV Cup 3 Semifinals do-or-die game ng  AFP at Malaca\u00f1ang, sa Linggo na",
                "program_id": "110",
                "program_title": "Ito ang Balita",
                "thumbnail": "http:\/\/img.youtube.com\/vi\/KLN8waSbHRk\/0.jpg",
                "url": "http:\/\/www.untvweb.com\/videos\/untv-cup-semifinals-do-or-die-game-ng-afp-at-malacanang-sa-linggo-na\/",
                "video_id": "KLN8waSbHRk"
            },
            {
                "id": "64461",
                "title": "Kansas, Missouri students co-champs of National Spelling Bee",
                "program_id": "103",
                "program_title": "Ang Dating Daan",
                "thumbnail": "http:\/\/img.youtube.com\/vi\/SamynhVx0os\/0.jpg",
                "url": "http:\/\/www.untvweb.com\/videos\/kansas-missouri-students-co-champs-of-national-spelling-bee\/",
                "video_id": "SamynhVx0os"
            }
        ],
        {
            "page": 1
        },
        {
            "total_count": "563"
        },
        {
            "total_page": 57
        }
    ]
}