{
    "status": "ok",
    "programs": [
        [
            {
                "id": "71807",
                "title": "Bible Story: Humingi ng payo ang mga Filisteo sa kanilang mga saserdote",
                "program_id": "140",
                "program_title": "Kawan Ng Cordero",
                "thumbnail": "http:\/\/img.youtube.com\/vi\/thA4lK5dPuU\/0.jpg",
                "url": "http:\/\/www.untvweb.com\/videos\/bible-story-humingi-ng-payo-ang-mga-filisteo-sa-kanilang-mga-saserdote\/",
                "video_id": "thA4lK5dPuU"
            },
            {
                "id": "71804",
                "title": "Art project: Paint Palette Craft",
                "program_id": "140",
                "program_title": "Kawan Ng Cordero",
                "thumbnail": "http:\/\/img.youtube.com\/vi\/pF9zvz2MBGo\/0.jpg",
                "url": "http:\/\/www.untvweb.com\/videos\/art-project-paint-palette-craft-2\/",
                "video_id": "pF9zvz2MBGo"
            },
            {
                "id": "71802",
                "title": "Bakit sa bahay ni Aguinaldo iwinagayway ang watawat ng Pilipinas?",
                "program_id": "140",
                "program_title": "Kawan Ng Cordero",
                "thumbnail": "http:\/\/img.youtube.com\/vi\/Wo0_ikwx9m8\/0.jpg",
                "url": "http:\/\/www.untvweb.com\/videos\/bakit-sa-bahay-ni-aguinaldo-iwinagayway-ang-watawat-ng-pilipinas\/",
                "video_id": "Wo0_ikwx9m8"
            },
            {
                "id": "71799",
                "title": "Bible Verse: mahalaga ang ating kasaysayan",
                "program_id": "140",
                "program_title": "Kawan Ng Cordero",
                "thumbnail": "http:\/\/img.youtube.com\/vi\/d1CGfGSOgAs\/0.jpg",
                "url": "http:\/\/www.untvweb.com\/videos\/bible-verse-mahalaga-ang-ating-kasaysayan\/",
                "video_id": "d1CGfGSOgAs"
            },
            {
                "id": "71792",
                "title": "Hiling ni CGMA na dumalo sa libing ng kapatid, pinayagan ng Sandiganbayan",
                "program_id": "52815",
                "program_title": "Why News",
                "thumbnail": "http:\/\/img.youtube.com\/vi\/YFujPdOdjqc\/0.jpg",
                "url": "http:\/\/www.untvweb.com\/videos\/hiling-ni-cgma-na-dumalo-sa-libing-ng-kapatid-pinayagan-ng-sandiganbayan\/",
                "video_id": "YFujPdOdjqc"
            },
            {
                "id": "71789",
                "title": "Bible Story: masama ang naging epekto sa Filisteo ng ninakaw nila ang kaban ng Dios",
                "program_id": "140",
                "program_title": "Kawan Ng Cordero",
                "thumbnail": "http:\/\/img.youtube.com\/vi\/bL7A2uFXRCo\/0.jpg",
                "url": "http:\/\/www.untvweb.com\/videos\/bible-story-masama-ang-naging-epekto-sa-filisteo-ng-ninakaw-nila-ang-kaban-ng-dios\/",
                "video_id": "bL7A2uFXRCo"
            },
            {
                "id": "71785",
                "title": "Art project: Color Pencil",
                "program_id": "140",
                "program_title": "Kawan Ng Cordero",
                "thumbnail": "http:\/\/img.youtube.com\/vi\/uBJ71UYmI1Q\/0.jpg",
                "url": "http:\/\/www.untvweb.com\/videos\/art-project-color-pencil-2\/",
                "video_id": "uBJ71UYmI1Q"
            },
            {
                "id": "71783",
                "title": "Bakit naging makasaysayan ang Intramuros?",
                "program_id": "140",
                "program_title": "Kawan Ng Cordero",
                "thumbnail": "http:\/\/img.youtube.com\/vi\/95W-7GJBD5k\/0.jpg",
                "url": "http:\/\/www.untvweb.com\/videos\/bakit-naging-makasaysayan-ang-intramuros\/",
                "video_id": "95W-7GJBD5k"
            },
            {
                "id": "71782",
                "title": "Dagdag sa hinihinging pondo ng DOJ para sa susunod na taon, sinang-ayunan ng mga kongresista",
                "program_id": "110",
                "program_title": "Ito ang Balita",
                "thumbnail": "http:\/\/img.youtube.com\/vi\/2XCxbCUH4Dk\/0.jpg",
                "url": "http:\/\/www.untvweb.com\/videos\/dagdag-sa-hinihinging-pondo-ng-doj-para-sa-susunod-na-taon-sinang-ayunan-ng-mga-kongresista\/",
                "video_id": "2XCxbCUH4Dk"
            },
            {
                "id": "71779",
                "title": "Bible Verse: ang puso ng mabait ay nagtatamo ng kaalaman",
                "program_id": "140",
                "program_title": "Kawan Ng Cordero",
                "thumbnail": "http:\/\/img.youtube.com\/vi\/w6PEfio0ssM\/0.jpg",
                "url": "http:\/\/www.untvweb.com\/videos\/bible-verse-ang-puso-ng-mabait-ay-nagtatamo-ng-kaalaman\/",
                "video_id": "w6PEfio0ssM"
            }
        ],
        {
            "page": 1
        },
        {
            "total_count": "53202"
        },
        {
            "total_page": 5321
        }
    ]
}